{
    "global": {
        "check_for_updates_on_startup": true,
        "show_in_menu_bar": false,
        "show_profile_name_in_menu_bar": false
    },
    "profiles": [
        {
            "devices": [],
            "fn_function_keys": {
                "f1": "display_brightness_decrement",
                "f10": "mute",
                "f11": "volume_decrement",
                "f12": "volume_increment",
                "f2": "display_brightness_increment",
                "f3": "mission_control",
                "f4": "launchpad",
                "f5": "illumination_decrement",
                "f6": "illumination_increment",
                "f7": "rewind",
                "f8": "play_or_pause",
                "f9": "fastforward"
            },
            "name": "Default profile",
            "selected": true,
            "simple_modifications": {
                "caps_lock": "vk_none",
                "fn": "fn",
                "left_command": "left_control",
                "left_control": "left_command"
            },
            "virtual_hid_keyboard": {
                "caps_lock_delay_milliseconds": 0,
                "keyboard_type": "iso"
            }
        }
    ]
}
